%YAML 1.1
%TAG !u! tag:unity3d.com,2011:
--- !u!1 &2478220738141245099
GameObject:
  m_ObjectHideFlags: 0
  m_CorrespondingSourceObject: {fileID: 0}
  m_PrefabInstance: {fileID: 0}
  m_PrefabAsset: {fileID: 0}
  serializedVersion: 6
  m_Component:
  - component: {fileID: 2478220738141245103}
  - component: {fileID: 2478220738141245102}
  - component: {fileID: 2478220738141245091}
  - component: {fileID: 2478220738141245101}
  - component: {fileID: 2478220738141245100}
  - component: {fileID: 2478220738141245088}
  - component: {fileID: 8066253921263569835}
  - component: {fileID: 129090387567898971}
  - component: {fileID: 7942615418136364521}
  - component: {fileID: 4064806722805729726}
  - component: {fileID: 65921630907619779}
  - component: {fileID: 7833354716584573268}
  - component: {fileID: 8917899354876620233}
  m_Layer: 12
  m_Name: Heal AoE Controller
  m_TagString: Player
  m_Icon: {fileID: 0}
  m_NavMeshLayer: 0
  m_StaticEditorFlags: 0
  m_IsActive: 1
--- !u!4 &2478220738141245103
Transform:
  m_ObjectHideFlags: 0
  m_CorrespondingSourceObject: {fileID: 0}
  m_PrefabInstance: {fileID: 0}
  m_PrefabAsset: {fileID: 0}
  m_GameObject: {fileID: 2478220738141245099}
  m_LocalRotation: {x: 0, y: 0, z: 0, w: 1}
  m_LocalPosition: {x: 0, y: 0, z: -24}
  m_LocalScale: {x: 1.5, y: 1.35, z: 1.5}
  m_Children:
  - {fileID: 1373379422158647356}
  - {fileID: 8460512768288799870}
  - {fileID: 1135368730864223486}
  - {fileID: 8167911920200000295}
  m_Father: {fileID: 0}
  m_RootOrder: 0
  m_LocalEulerAnglesHint: {x: 0, y: 0, z: 0}
--- !u!54 &2478220738141245102
Rigidbody:
  m_ObjectHideFlags: 0
  m_CorrespondingSourceObject: {fileID: 0}
  m_PrefabInstance: {fileID: 0}
  m_PrefabAsset: {fileID: 0}
  m_GameObject: {fileID: 2478220738141245099}
  serializedVersion: 2
  m_Mass: 1
  m_Drag: 0
  m_AngularDrag: 0.05
  m_UseGravity: 0
  m_IsKinematic: 0
  m_Interpolate: 2
  m_Constraints: 112
  m_CollisionDetection: 2
--- !u!114 &2478220738141245091
MonoBehaviour:
  m_ObjectHideFlags: 0
  m_CorrespondingSourceObject: {fileID: 0}
  m_PrefabInstance: {fileID: 0}
  m_PrefabAsset: {fileID: 0}
  m_GameObject: {fileID: 2478220738141245099}
  m_Enabled: 1
  m_EditorHideFlags: 0
  m_Script: {fileID: 11500000, guid: e31ef224791c35645acf198f0b8d8bc0, type: 3}
  m_Name: 
  m_EditorClassIdentifier: 
  rb: {fileID: 0}
  movement: {fileID: 0}
  aim: {fileID: 0}
  aimUI: {fileID: 0}
  attack: {fileID: 0}
  dash: {fileID: 0}
  ability: {fileID: 0}
  playerNum: 1
  input: {fileID: 0}
  DisableController: 0
--- !u!114 &2478220738141245101
MonoBehaviour:
  m_ObjectHideFlags: 0
  m_CorrespondingSourceObject: {fileID: 0}
  m_PrefabInstance: {fileID: 0}
  m_PrefabAsset: {fileID: 0}
  m_GameObject: {fileID: 2478220738141245099}
  m_Enabled: 1
  m_EditorHideFlags: 0
  m_Script: {fileID: 11500000, guid: 2be444529204ee54089fc59ea0ecd75a, type: 3}
  m_Name: 
  m_EditorClassIdentifier: 
  state: {fileID: 0}
  moveInfo: {fileID: 11400000, guid: 62e257cf4a9824d4cac97f707e32e494, type: 2}
--- !u!114 &2478220738141245100
MonoBehaviour:
  m_ObjectHideFlags: 0
  m_CorrespondingSourceObject: {fileID: 0}
  m_PrefabInstance: {fileID: 0}
  m_PrefabAsset: {fileID: 0}
  m_GameObject: {fileID: 2478220738141245099}
  m_Enabled: 1
  m_EditorHideFlags: 0
  m_Script: {fileID: 11500000, guid: 87749e52ed1a654418f9da60ccba0176, type: 3}
  m_Name: 
  m_EditorClassIdentifier: 
  state: {fileID: 0}
  projectile: {fileID: 4920350672561494324, guid: 1c759d30ac179dc4d95a7a78013fc220,
    type: 3}
  boss: {fileID: 0}
  cooldown: 0
  attackInfo: {fileID: 11400000, guid: 82c2fdaa936217a489e8237f03d76d06, type: 2}
  movementOffset: 3.8
  attackSound: Laser
--- !u!114 &2478220738141245088
MonoBehaviour:
  m_ObjectHideFlags: 0
  m_CorrespondingSourceObject: {fileID: 0}
  m_PrefabInstance: {fileID: 0}
  m_PrefabAsset: {fileID: 0}
  m_GameObject: {fileID: 2478220738141245099}
  m_Enabled: 1
  m_EditorHideFlags: 0
  m_Script: {fileID: 11500000, guid: 7fe77b6914752e94b9c5af80da2aa3cc, type: 3}
  m_Name: 
  m_EditorClassIdentifier: 
  state: {fileID: 0}
  collider: {fileID: 4618173074866967319}
  DashingStart: {fileID: 11400000, guid: 5ccbb4d10636ac34d86c5d11e1492abd, type: 2}
  DashingEnd: {fileID: 11400000, guid: 8a9d55bd84dd7754bb5efce4d9c65da3, type: 2}
  duration: 0.18
  cooldown: 0
  cooldownMax: 0.75
  postDashInvDuration: 0.25
  rend: {fileID: 0}
--- !u!114 &8066253921263569835
MonoBehaviour:
  m_ObjectHideFlags: 0
  m_CorrespondingSourceObject: {fileID: 0}
  m_PrefabInstance: {fileID: 0}
  m_PrefabAsset: {fileID: 0}
  m_GameObject: {fileID: 2478220738141245099}
  m_Enabled: 1
  m_EditorHideFlags: 0
  m_Script: {fileID: 11500000, guid: 2db261d83169ab046bc68f310c45bc7f, type: 3}
  m_Name: 
  m_EditorClassIdentifier: 
  isDashing:
    variable: 0
  isCastingAbility:
    variable: 0
  isCastingSpeed:
    variable: 0
--- !u!114 &129090387567898971
MonoBehaviour:
  m_ObjectHideFlags: 0
  m_CorrespondingSourceObject: {fileID: 0}
  m_PrefabInstance: {fileID: 0}
  m_PrefabAsset: {fileID: 0}
  m_GameObject: {fileID: 2478220738141245099}
  m_Enabled: 1
  m_EditorHideFlags: 0
  m_Script: {fileID: 11500000, guid: c2e8f7fd9890c1547bd1fe28f0ed2ba5, type: 3}
  m_Name: 
  m_EditorClassIdentifier: 
  prevInput: {x: 0, y: 0, z: 1}
  smoothing: {x: 0, y: 0, z: 0}
  smoothTime: 0.2
  assistAngleMin: 1
  assistAngleMax: 20
  assistAngle: 20
  mask:
    serializedVersion: 2
    m_Bits: 16384
  _target: {x: 0, y: 0, z: 0}
--- !u!114 &7942615418136364521
MonoBehaviour:
  m_ObjectHideFlags: 0
  m_CorrespondingSourceObject: {fileID: 0}
  m_PrefabInstance: {fileID: 0}
  m_PrefabAsset: {fileID: 0}
  m_GameObject: {fileID: 2478220738141245099}
  m_Enabled: 1
  m_EditorHideFlags: 0
  m_Script: {fileID: 11500000, guid: 3fef4775bc1ac114b90cd77dc78b992f, type: 3}
  m_Name: 
  m_EditorClassIdentifier: 
  state: {fileID: 0}
  cooldown:
    variable: 0
  cooldownMax:
    variable: 15
  isAoE: 0
  abilitySound: Laser_rev_fast
  AoEPrefab: {fileID: 6450393448212292197, guid: 7f80b602020dc9d44a26105eb0d330ed,
    type: 3}
  AoEInstance: {fileID: 0}
  AoEDuration: 5
  attachAsChild: 1
--- !u!114 &4064806722805729726
MonoBehaviour:
  m_ObjectHideFlags: 0
  m_CorrespondingSourceObject: {fileID: 0}
  m_PrefabInstance: {fileID: 0}
  m_PrefabAsset: {fileID: 0}
  m_GameObject: {fileID: 2478220738141245099}
  m_Enabled: 1
  m_EditorHideFlags: 0
  m_Script: {fileID: 11500000, guid: fee9180de2663d84592627ffa51c1563, type: 3}
  m_Name: 
  m_EditorClassIdentifier: 
  movement: {fileID: 0}
  ability: {fileID: 0}
  defaultMovement: {fileID: 11400000, guid: 62e257cf4a9824d4cac97f707e32e494, type: 2}
--- !u!114 &65921630907619779
MonoBehaviour:
  m_ObjectHideFlags: 0
  m_CorrespondingSourceObject: {fileID: 0}
  m_PrefabInstance: {fileID: 0}
  m_PrefabAsset: {fileID: 0}
  m_GameObject: {fileID: 2478220738141245099}
  m_Enabled: 1
  m_EditorHideFlags: 0
  m_Script: {fileID: 11500000, guid: 1b19b68641aa0444a8b21089e8f6ac99, type: 3}
  m_Name: 
  m_EditorClassIdentifier: 
  maxHealth: 3
  health: 0
  isPlayer: 1
  alwaysInvincible: 0
  explosion: {fileID: 2214879179376686004, guid: 82cb68ff0d3fd7849a5ff9b3073c546b,
    type: 3}
  respawn: {fileID: 2712498878189723595, guid: 0727a0326c9972d4f94d7d37eb00f1b7, type: 3}
  vibrateOnLowHealth: 1
  bossDeath: 0
  DeathCam: {fileID: 8167911920200000293}
--- !u!114 &7833354716584573268
MonoBehaviour:
  m_ObjectHideFlags: 0
  m_CorrespondingSourceObject: {fileID: 0}
  m_PrefabInstance: {fileID: 0}
  m_PrefabAsset: {fileID: 0}
  m_GameObject: {fileID: 2478220738141245099}
  m_Enabled: 1
  m_EditorHideFlags: 0
  m_Script: {fileID: 11500000, guid: dcc2ea4d0fc885a40ae1b11accb5aa97, type: 3}
  m_Name: 
  m_EditorClassIdentifier: 
  player: {fileID: 2478220738141245099}
  playerCollider: {fileID: 4618173074866967319}
  mask:
    serializedVersion: 2
    m_Bits: 256
  isGrounded: 0
  target: {x: 0, y: 0, z: 0}
  targetHeight: 0
  fallAcceleration: 9
--- !u!114 &8917899354876620233
MonoBehaviour:
  m_ObjectHideFlags: 0
  m_CorrespondingSourceObject: {fileID: 0}
  m_PrefabInstance: {fileID: 0}
  m_PrefabAsset: {fileID: 0}
  m_GameObject: {fileID: 2478220738141245099}
  m_Enabled: 1
  m_EditorHideFlags: 0
  m_Script: {fileID: 11500000, guid: 8d032d0ce24057e4dbe08e7164a835dc, type: 3}
  m_Name: 
  m_EditorClassIdentifier: 
  materialsList:
    readyToSerialize: 1
    keys:
    - Hurt
    - Dash
    values:
    - {fileID: 2100000, guid: 5c68d2f6a13c25b4584c03cd71000b69, type: 2}
    - {fileID: 2100000, guid: 5f480f372f5cd714486676a09cf2f1b6, type: 2}
  renderers:
  - {fileID: 7220192267725238807}
  - {fileID: 6965453564356850006}
  - {fileID: 3421856903677233880}
--- !u!1 &2978717568996415590
GameObject:
  m_ObjectHideFlags: 0
  m_CorrespondingSourceObject: {fileID: 0}
  m_PrefabInstance: {fileID: 0}
  m_PrefabAsset: {fileID: 0}
  serializedVersion: 6
  m_Component:
  - component: {fileID: 8460512768288799870}
  - component: {fileID: 3100674928327187238}
  m_Layer: 0
  m_Name: Offset
  m_TagString: Untagged
  m_Icon: {fileID: 0}
  m_NavMeshLayer: 0
  m_StaticEditorFlags: 0
  m_IsActive: 1
--- !u!4 &8460512768288799870
Transform:
  m_ObjectHideFlags: 0
  m_CorrespondingSourceObject: {fileID: 0}
  m_PrefabInstance: {fileID: 0}
  m_PrefabAsset: {fileID: 0}
  m_GameObject: {fileID: 2978717568996415590}
  m_LocalRotation: {x: 0.7071068, y: 0, z: 0, w: 0.7071068}
  m_LocalPosition: {x: 0, y: 0, z: 0}
  m_LocalScale: {x: 1, y: 1, z: 1}
  m_Children:
  - {fileID: 3758628427358597294}
  m_Father: {fileID: 2478220738141245103}
  m_RootOrder: 1
  m_LocalEulerAnglesHint: {x: 90, y: 0, z: 0}
--- !u!114 &3100674928327187238
MonoBehaviour:
  m_ObjectHideFlags: 0
  m_CorrespondingSourceObject: {fileID: 0}
  m_PrefabInstance: {fileID: 0}
  m_PrefabAsset: {fileID: 0}
  m_GameObject: {fileID: 2978717568996415590}
  m_Enabled: 1
  m_EditorHideFlags: 0
  m_Script: {fileID: 11500000, guid: 845ae215350f358449db14a80a8cab50, type: 3}
  m_Name: 
  m_EditorClassIdentifier: 
  aim: {fileID: 129090387567898971}
--- !u!1 &2996944609473178829
GameObject:
  m_ObjectHideFlags: 0
  m_CorrespondingSourceObject: {fileID: 0}
  m_PrefabInstance: {fileID: 0}
  m_PrefabAsset: {fileID: 0}
  serializedVersion: 6
  m_Component:
  - component: {fileID: 1135368730864223486}
  - component: {fileID: 8607205715297794073}
  m_Layer: 12
  m_Name: Trail
  m_TagString: Untagged
  m_Icon: {fileID: 0}
  m_NavMeshLayer: 0
  m_StaticEditorFlags: 0
  m_IsActive: 1
--- !u!4 &1135368730864223486
Transform:
  m_ObjectHideFlags: 0
  m_CorrespondingSourceObject: {fileID: 0}
  m_PrefabInstance: {fileID: 0}
  m_PrefabAsset: {fileID: 0}
  m_GameObject: {fileID: 2996944609473178829}
  m_LocalRotation: {x: -0, y: -0, z: -0, w: 1}
  m_LocalPosition: {x: 0, y: 0, z: 0}
  m_LocalScale: {x: 1, y: 1, z: 1}
  m_Children: []
  m_Father: {fileID: 2478220738141245103}
  m_RootOrder: 2
  m_LocalEulerAnglesHint: {x: 0, y: 0, z: 0}
--- !u!96 &8607205715297794073
TrailRenderer:
  serializedVersion: 2
  m_ObjectHideFlags: 0
  m_CorrespondingSourceObject: {fileID: 0}
  m_PrefabInstance: {fileID: 0}
  m_PrefabAsset: {fileID: 0}
  m_GameObject: {fileID: 2996944609473178829}
  m_Enabled: 0
  m_CastShadows: 1
  m_ReceiveShadows: 1
  m_DynamicOccludee: 1
  m_MotionVectors: 1
  m_LightProbeUsage: 0
  m_ReflectionProbeUsage: 0
  m_RenderingLayerMask: 1
  m_RendererPriority: 0
  m_Materials:
  - {fileID: 10306, guid: 0000000000000000f000000000000000, type: 0}
  m_StaticBatchInfo:
    firstSubMesh: 0
    subMeshCount: 0
  m_StaticBatchRoot: {fileID: 0}
  m_ProbeAnchor: {fileID: 0}
  m_LightProbeVolumeOverride: {fileID: 0}
  m_ScaleInLightmap: 1
  m_PreserveUVs: 0
  m_IgnoreNormalsForChartDetection: 0
  m_ImportantGI: 0
  m_StitchLightmapSeams: 1
  m_SelectedEditorRenderState: 3
  m_MinimumChartSize: 4
  m_AutoUVMaxDistance: 0.5
  m_AutoUVMaxAngle: 89
  m_LightmapParameters: {fileID: 0}
  m_SortingLayerID: 0
  m_SortingLayer: 0
  m_SortingOrder: 0
  m_Time: 0.5
  m_Parameters:
    serializedVersion: 3
    widthMultiplier: 1.2
    widthCurve:
      serializedVersion: 2
      m_Curve:
      - serializedVersion: 3
        time: 0
        value: 1
        inSlope: -1.7608695
        outSlope: -1.7608695
        tangentMode: 0
        weightedMode: 0
        inWeight: 0.33333334
        outWeight: 0.21296297
      - serializedVersion: 3
        time: 1
        value: 0.42045593
        inSlope: 0
        outSlope: 0
        tangentMode: 0
        weightedMode: 0
        inWeight: 0
        outWeight: 0
      m_PreInfinity: 2
      m_PostInfinity: 2
      m_RotationOrder: 4
    colorGradient:
      serializedVersion: 2
      key0: {r: 1, g: 1, b: 1, a: 0.70980394}
      key1: {r: 1, g: 1, b: 1, a: 0}
      key2: {r: 0, g: 0, b: 0, a: 0}
      key3: {r: 0, g: 0, b: 0, a: 0}
      key4: {r: 0, g: 0, b: 0, a: 0}
      key5: {r: 0, g: 0, b: 0, a: 0}
      key6: {r: 0, g: 0, b: 0, a: 0}
      key7: {r: 0, g: 0, b: 0, a: 0}
      ctime0: 0
      ctime1: 65535
      ctime2: 0
      ctime3: 0
      ctime4: 0
      ctime5: 0
      ctime6: 0
      ctime7: 0
      atime0: 0
      atime1: 38550
      atime2: 37972
      atime3: 0
      atime4: 0
      atime5: 0
      atime6: 0
      atime7: 0
      m_Mode: 0
      m_NumColorKeys: 2
      m_NumAlphaKeys: 2
    numCornerVertices: 0
    numCapVertices: 0
    alignment: 0
    textureMode: 0
    shadowBias: 0.5
    generateLightingData: 0
  m_MinVertexDistance: 0.001
  m_Autodestruct: 0
  m_Emitting: 1
--- !u!1 &4172628302811577240
GameObject:
  m_ObjectHideFlags: 0
  m_CorrespondingSourceObject: {fileID: 0}
  m_PrefabInstance: {fileID: 0}
  m_PrefabAsset: {fileID: 0}
  serializedVersion: 6
  m_Component:
  - component: {fileID: 1373379422158647356}
  - component: {fileID: 3146720900136672946}
  - component: {fileID: 9063443819457601262}
  - component: {fileID: 4618173074866967319}
  m_Layer: 12
  m_Name: Heal AoE Hitbox
  m_TagString: Player
  m_Icon: {fileID: 0}
  m_NavMeshLayer: 0
  m_StaticEditorFlags: 0
  m_IsActive: 1
--- !u!4 &1373379422158647356
Transform:
  m_ObjectHideFlags: 0
  m_CorrespondingSourceObject: {fileID: 0}
  m_PrefabInstance: {fileID: 0}
  m_PrefabAsset: {fileID: 0}
  m_GameObject: {fileID: 4172628302811577240}
  m_LocalRotation: {x: 0, y: 0, z: 0, w: 1}
  m_LocalPosition: {x: 0, y: 0, z: 0}
  m_LocalScale: {x: 1, y: 1, z: 1}
  m_Children: []
  m_Father: {fileID: 2478220738141245103}
  m_RootOrder: 0
  m_LocalEulerAnglesHint: {x: 0, y: 0, z: 0}
--- !u!33 &3146720900136672946
MeshFilter:
  m_ObjectHideFlags: 0
  m_CorrespondingSourceObject: {fileID: 0}
  m_PrefabInstance: {fileID: 0}
  m_PrefabAsset: {fileID: 0}
  m_GameObject: {fileID: 4172628302811577240}
  m_Mesh: {fileID: 10207, guid: 0000000000000000e000000000000000, type: 0}
--- !u!23 &9063443819457601262
MeshRenderer:
  m_ObjectHideFlags: 0
  m_CorrespondingSourceObject: {fileID: 0}
  m_PrefabInstance: {fileID: 0}
  m_PrefabAsset: {fileID: 0}
  m_GameObject: {fileID: 4172628302811577240}
  m_Enabled: 0
  m_CastShadows: 1
  m_ReceiveShadows: 1
  m_DynamicOccludee: 1
  m_MotionVectors: 1
  m_LightProbeUsage: 1
  m_ReflectionProbeUsage: 1
  m_RenderingLayerMask: 1
  m_RendererPriority: 0
  m_Materials:
  - {fileID: 10303, guid: 0000000000000000f000000000000000, type: 0}
  m_StaticBatchInfo:
    firstSubMesh: 0
    subMeshCount: 0
  m_StaticBatchRoot: {fileID: 0}
  m_ProbeAnchor: {fileID: 0}
  m_LightProbeVolumeOverride: {fileID: 0}
  m_ScaleInLightmap: 1
  m_PreserveUVs: 0
  m_IgnoreNormalsForChartDetection: 0
  m_ImportantGI: 0
  m_StitchLightmapSeams: 1
  m_SelectedEditorRenderState: 3
  m_MinimumChartSize: 4
  m_AutoUVMaxDistance: 0.5
  m_AutoUVMaxAngle: 89
  m_LightmapParameters: {fileID: 0}
  m_SortingLayerID: 0
  m_SortingLayer: 0
  m_SortingOrder: 0
--- !u!135 &4618173074866967319
SphereCollider:
  m_ObjectHideFlags: 0
  m_CorrespondingSourceObject: {fileID: 0}
  m_PrefabInstance: {fileID: 0}
  m_PrefabAsset: {fileID: 0}
  m_GameObject: {fileID: 4172628302811577240}
  m_Material: {fileID: 0}
  m_IsTrigger: 0
  m_Enabled: 1
  serializedVersion: 2
  m_Radius: 0.5
  m_Center: {x: 0, y: 0, z: 0}
--- !u!114 &6055944537364723795
MonoBehaviour:
  m_ObjectHideFlags: 0
  m_CorrespondingSourceObject: {fileID: 0}
  m_PrefabInstance: {fileID: 0}
  m_PrefabAsset: {fileID: 0}
  m_GameObject: {fileID: 8167911920200000293}
  m_Enabled: 1
  m_EditorHideFlags: 0
  m_Script: {fileID: 11500000, guid: ac9b56ee56ca857488f3bbadaa03316d, type: 3}
  m_Name: 
  m_EditorClassIdentifier: 
  time: 1
--- !u!1001 &4347997935716945093
PrefabInstance:
  m_ObjectHideFlags: 0
  serializedVersion: 2
  m_Modification:
    m_TransformParent: {fileID: 2478220738141245103}
    m_Modifications:
    - target: {fileID: 5552218745800847328, guid: 88517258b3fdb254c802e95c94e646b2,
        type: 3}
      propertyPath: m_Name
      value: PanningCamera
      objectReference: {fileID: 0}
    - target: {fileID: 5552218745800847328, guid: 88517258b3fdb254c802e95c94e646b2,
        type: 3}
      propertyPath: m_IsActive
      value: 0
      objectReference: {fileID: 0}
    - target: {fileID: 5552218745800847330, guid: 88517258b3fdb254c802e95c94e646b2,
        type: 3}
      propertyPath: m_LocalPosition.x
      value: 0
      objectReference: {fileID: 0}
    - target: {fileID: 5552218745800847330, guid: 88517258b3fdb254c802e95c94e646b2,
        type: 3}
      propertyPath: m_LocalPosition.y
      value: 10
      objectReference: {fileID: 0}
    - target: {fileID: 5552218745800847330, guid: 88517258b3fdb254c802e95c94e646b2,
        type: 3}
      propertyPath: m_LocalPosition.z
      value: 0
      objectReference: {fileID: 0}
    - target: {fileID: 5552218745800847330, guid: 88517258b3fdb254c802e95c94e646b2,
        type: 3}
      propertyPath: m_LocalRotation.x
      value: -0
      objectReference: {fileID: 0}
    - target: {fileID: 5552218745800847330, guid: 88517258b3fdb254c802e95c94e646b2,
        type: 3}
      propertyPath: m_LocalRotation.y
      value: -0
      objectReference: {fileID: 0}
    - target: {fileID: 5552218745800847330, guid: 88517258b3fdb254c802e95c94e646b2,
        type: 3}
      propertyPath: m_LocalRotation.z
      value: -0
      objectReference: {fileID: 0}
    - target: {fileID: 5552218745800847330, guid: 88517258b3fdb254c802e95c94e646b2,
        type: 3}
      propertyPath: m_LocalRotation.w
      value: 1
      objectReference: {fileID: 0}
    - target: {fileID: 5552218745800847330, guid: 88517258b3fdb254c802e95c94e646b2,
        type: 3}
      propertyPath: m_RootOrder
      value: 3
      objectReference: {fileID: 0}
    - target: {fileID: 5552218745800847330, guid: 88517258b3fdb254c802e95c94e646b2,
        type: 3}
      propertyPath: m_LocalEulerAnglesHint.x
      value: 0
      objectReference: {fileID: 0}
    - target: {fileID: 5552218745800847330, guid: 88517258b3fdb254c802e95c94e646b2,
        type: 3}
      propertyPath: m_LocalEulerAnglesHint.y
      value: 0
      objectReference: {fileID: 0}
    - target: {fileID: 5552218745800847330, guid: 88517258b3fdb254c802e95c94e646b2,
        type: 3}
      propertyPath: m_LocalEulerAnglesHint.z
      value: 0
      objectReference: {fileID: 0}
    - target: {fileID: 5552218745800847329, guid: 88517258b3fdb254c802e95c94e646b2,
        type: 3}
      propertyPath: speed
      value: 100
      objectReference: {fileID: 0}
    - target: {fileID: 5552218744975661689, guid: 88517258b3fdb254c802e95c94e646b2,
        type: 3}
      propertyPath: m_LocalPosition.y
      value: -7.73
      objectReference: {fileID: 0}
    - target: {fileID: 5552218744975661689, guid: 88517258b3fdb254c802e95c94e646b2,
        type: 3}
      propertyPath: m_LocalPosition.z
      value: -2.49
      objectReference: {fileID: 0}
    - target: {fileID: 5552218744975661689, guid: 88517258b3fdb254c802e95c94e646b2,
        type: 3}
      propertyPath: m_LocalRotation.x
      value: 0.30070576
      objectReference: {fileID: 0}
    - target: {fileID: 5552218744975661689, guid: 88517258b3fdb254c802e95c94e646b2,
        type: 3}
      propertyPath: m_LocalRotation.w
      value: 0.953717
      objectReference: {fileID: 0}
    - target: {fileID: 5552218744975661689, guid: 88517258b3fdb254c802e95c94e646b2,
        type: 3}
      propertyPath: m_LocalEulerAnglesHint.x
      value: 35
      objectReference: {fileID: 0}
    - target: {fileID: 5552218744975661691, guid: 88517258b3fdb254c802e95c94e646b2,
        type: 3}
      propertyPath: m_ClearFlags
      value: 2
      objectReference: {fileID: 0}
    m_RemovedComponents: []
  m_SourcePrefab: {fileID: 100100000, guid: 88517258b3fdb254c802e95c94e646b2, type: 3}
--- !u!1 &8167911920200000293 stripped
GameObject:
  m_CorrespondingSourceObject: {fileID: 5552218745800847328, guid: 88517258b3fdb254c802e95c94e646b2,
    type: 3}
  m_PrefabInstance: {fileID: 4347997935716945093}
  m_PrefabAsset: {fileID: 0}
--- !u!4 &8167911920200000295 stripped
Transform:
  m_CorrespondingSourceObject: {fileID: 5552218745800847330, guid: 88517258b3fdb254c802e95c94e646b2,
    type: 3}
  m_PrefabInstance: {fileID: 4347997935716945093}
  m_PrefabAsset: {fileID: 0}
--- !u!1001 &8166117310239431604
PrefabInstance:
  m_ObjectHideFlags: 0
  serializedVersion: 2
  m_Modification:
    m_TransformParent: {fileID: 8460512768288799870}
    m_Modifications:
    - target: {fileID: -927199367670048503, guid: e196b560c6ca36041bce775ed3ebfa0d,
        type: 3}
      propertyPath: m_Name
      value: 494_player_v4
      objectReference: {fileID: 0}
    - target: {fileID: 6786644074559115628, guid: e196b560c6ca36041bce775ed3ebfa0d,
        type: 3}
      propertyPath: m_Materials.Array.data[0]
      value: 
      objectReference: {fileID: 2100000, guid: ca117d7fa37d47e4b92c253c978022f8, type: 2}
    - target: {fileID: -7928125959993382174, guid: e196b560c6ca36041bce775ed3ebfa0d,
        type: 3}
      propertyPath: m_Materials.Array.data[0]
      value: 
      objectReference: {fileID: 2100000, guid: c31dc1e8c2b98794eb90ae1fb90308cf, type: 2}
    - target: {fileID: -7928125959993382174, guid: e196b560c6ca36041bce775ed3ebfa0d,
        type: 3}
      propertyPath: m_Materials.Array.data[1]
      value: 
      objectReference: {fileID: 2100000, guid: ca117d7fa37d47e4b92c253c978022f8, type: 2}
    - target: {fileID: 1540414628745816483, guid: e196b560c6ca36041bce775ed3ebfa0d,
        type: 3}
      propertyPath: m_Materials.Array.data[2]
      value: 
      objectReference: {fileID: 2100000, guid: 9bc4bdf2c31f38446abc5b50554b423c, type: 2}
    - target: {fileID: 1540414628745816483, guid: e196b560c6ca36041bce775ed3ebfa0d,
        type: 3}
      propertyPath: m_Materials.Array.data[0]
      value: 
      objectReference: {fileID: 2100000, guid: 5dc4d081faaabf3419338f6f9e4b0704, type: 2}
    - target: {fileID: 1540414628745816483, guid: e196b560c6ca36041bce775ed3ebfa0d,
        type: 3}
      propertyPath: m_Materials.Array.data[1]
      value: 
      objectReference: {fileID: 2100000, guid: ca117d7fa37d47e4b92c253c978022f8, type: 2}
    - target: {fileID: -4216859302048453862, guid: e196b560c6ca36041bce775ed3ebfa0d,
        type: 3}
      propertyPath: m_LocalPosition.x
      value: 0
      objectReference: {fileID: 0}
    - target: {fileID: -4216859302048453862, guid: e196b560c6ca36041bce775ed3ebfa0d,
        type: 3}
      propertyPath: m_LocalPosition.y
      value: 0
      objectReference: {fileID: 0}
    - target: {fileID: -4216859302048453862, guid: e196b560c6ca36041bce775ed3ebfa0d,
        type: 3}
      propertyPath: m_LocalPosition.z
      value: 0
      objectReference: {fileID: 0}
    - target: {fileID: -4216859302048453862, guid: e196b560c6ca36041bce775ed3ebfa0d,
        type: 3}
      propertyPath: m_LocalRotation.x
      value: 0
      objectReference: {fileID: 0}
    - target: {fileID: -4216859302048453862, guid: e196b560c6ca36041bce775ed3ebfa0d,
        type: 3}
      propertyPath: m_LocalRotation.y
      value: 0.7071068
      objectReference: {fileID: 0}
    - target: {fileID: -4216859302048453862, guid: e196b560c6ca36041bce775ed3ebfa0d,
        type: 3}
      propertyPath: m_LocalRotation.z
      value: -0.7071068
      objectReference: {fileID: 0}
    - target: {fileID: -4216859302048453862, guid: e196b560c6ca36041bce775ed3ebfa0d,
        type: 3}
      propertyPath: m_LocalRotation.w
      value: 0
      objectReference: {fileID: 0}
    - target: {fileID: -4216859302048453862, guid: e196b560c6ca36041bce775ed3ebfa0d,
        type: 3}
      propertyPath: m_RootOrder
      value: 0
      objectReference: {fileID: 0}
    - target: {fileID: -4216859302048453862, guid: e196b560c6ca36041bce775ed3ebfa0d,
        type: 3}
      propertyPath: m_LocalEulerAnglesHint.x
      value: 90
      objectReference: {fileID: 0}
    - target: {fileID: -4216859302048453862, guid: e196b560c6ca36041bce775ed3ebfa0d,
        type: 3}
      propertyPath: m_LocalEulerAnglesHint.y
      value: 180
      objectReference: {fileID: 0}
    - target: {fileID: -4216859302048453862, guid: e196b560c6ca36041bce775ed3ebfa0d,
        type: 3}
      propertyPath: m_LocalEulerAnglesHint.z
      value: 0
      objectReference: {fileID: 0}
    - target: {fileID: -4216859302048453862, guid: e196b560c6ca36041bce775ed3ebfa0d,
        type: 3}
      propertyPath: m_LocalScale.x
      value: 1.5
      objectReference: {fileID: 0}
    - target: {fileID: -4216859302048453862, guid: e196b560c6ca36041bce775ed3ebfa0d,
        type: 3}
      propertyPath: m_LocalScale.y
      value: 1.5
      objectReference: {fileID: 0}
    - target: {fileID: -4216859302048453862, guid: e196b560c6ca36041bce775ed3ebfa0d,
        type: 3}
      propertyPath: m_LocalScale.z
      value: 1.5
      objectReference: {fileID: 0}
    m_RemovedComponents: []
  m_SourcePrefab: {fileID: 100100000, guid: e196b560c6ca36041bce775ed3ebfa0d, type: 3}
--- !u!23 &6965453564356850006 stripped
MeshRenderer:
  m_CorrespondingSourceObject: {fileID: -7928125959993382174, guid: e196b560c6ca36041bce775ed3ebfa0d,
    type: 3}
  m_PrefabInstance: {fileID: 8166117310239431604}
  m_PrefabAsset: {fileID: 0}
--- !u!23 &3421856903677233880 stripped
MeshRenderer:
  m_CorrespondingSourceObject: {fileID: 6786644074559115628, guid: e196b560c6ca36041bce775ed3ebfa0d,
    type: 3}
  m_PrefabInstance: {fileID: 8166117310239431604}
  m_PrefabAsset: {fileID: 0}
--- !u!4 &3758628427358597294 stripped
Transform:
  m_CorrespondingSourceObject: {fileID: -4216859302048453862, guid: e196b560c6ca36041bce775ed3ebfa0d,
    type: 3}
  m_PrefabInstance: {fileID: 8166117310239431604}
  m_PrefabAsset: {fileID: 0}
--- !u!23 &7220192267725238807 stripped
MeshRenderer:
  m_CorrespondingSourceObject: {fileID: 1540414628745816483, guid: e196b560c6ca36041bce775ed3ebfa0d,
    type: 3}
  m_PrefabInstance: {fileID: 8166117310239431604}
  m_PrefabAsset: {fileID: 0}
